info face="DoctorSoosBold" size=72 bold=0 italic=0 charset="" unicode=0 stretchH=100 smooth=1 aa=1 padding=0,0,0,0 spacing=2,2
common lineHeight=92 base=60 scaleW=512 scaleH=256 pages=1 packed=0
page id=0 file="DoctorSoosBold-hd.png"
chars count=85
char id=106 x=2 y=2 width=23 height=60 xoffset=-6 yoffset=15 xadvance=18 page=0 chnl=0 letter="j"
char id=41 x=27 y=2 width=21 height=59 xoffset=0 yoffset=11 xadvance=22 page=0 chnl=0 letter=")"
char id=103 x=50 y=2 width=31 height=57 xoffset=2 yoffset=23 xadvance=32 page=0 chnl=0 letter="g"
char id=40 x=83 y=2 width=21 height=56 xoffset=3 yoffset=13 xadvance=22 page=0 chnl=0 letter="("
char id=112 x=106 y=2 width=30 height=54 xoffset=3 yoffset=25 xadvance=33 page=0 chnl=0 letter="p"
char id=104 x=138 y=2 width=29 height=54 xoffset=3 yoffset=9 xadvance=32 page=0 chnl=0 letter="h"
char id=113 x=169 y=2 width=32 height=53 xoffset=2 yoffset=26 xadvance=30 page=0 chnl=0 letter="q"
char id=64 x=203 y=2 width=51 height=52 xoffset=2 yoffset=21 xadvance=58 page=0 chnl=0 letter="@"
char id=98 x=256 y=2 width=29 height=49 xoffset=3 yoffset=14 xadvance=31 page=0 chnl=0 letter="b"
char id=100 x=287 y=2 width=28 height=49 xoffset=2 yoffset=15 xadvance=30 page=0 chnl=0 letter="d"
char id=33 x=317 y=2 width=20 height=49 xoffset=1 yoffset=12 xadvance=20 page=0 chnl=0 letter="!"
char id=107 x=339 y=2 width=31 height=48 xoffset=3 yoffset=14 xadvance=32 page=0 chnl=0 letter="k"
char id=36 x=372 y=2 width=27 height=48 xoffset=3 yoffset=16 xadvance=30 page=0 chnl=0 letter="$"
char id=102 x=401 y=2 width=28 height=47 xoffset=1 yoffset=15 xadvance=27 page=0 chnl=0 letter="f"
char id=87 x=431 y=2 width=47 height=46 xoffset=0 yoffset=19 xadvance=45 page=0 chnl=0 letter="W"
char id=57 x=2 y=64 width=33 height=46 xoffset=2 yoffset=19 xadvance=36 page=0 chnl=0 letter="9"
char id=121 x=37 y=64 width=30 height=46 xoffset=3 yoffset=29 xadvance=33 page=0 chnl=0 letter="y"
char id=63 x=69 y=64 width=29 height=46 xoffset=3 yoffset=14 xadvance=32 page=0 chnl=0 letter="?"
char id=116 x=100 y=64 width=25 height=46 xoffset=1 yoffset=17 xadvance=24 page=0 chnl=0 letter="t"
char id=108 x=127 y=64 width=12 height=46 xoffset=3 yoffset=14 xadvance=16 page=0 chnl=0 letter="l"
char id=86 x=141 y=64 width=39 height=45 xoffset=1 yoffset=18 xadvance=38 page=0 chnl=0 letter="V"
char id=65 x=182 y=64 width=37 height=45 xoffset=1 yoffset=17 xadvance=36 page=0 chnl=0 letter="A"
char id=81 x=221 y=64 width=37 height=45 xoffset=3 yoffset=18 xadvance=39 page=0 chnl=0 letter="Q"
char id=77 x=260 y=64 width=36 height=45 xoffset=2 yoffset=18 xadvance=39 page=0 chnl=0 letter="M"
char id=52 x=298 y=64 width=33 height=45 xoffset=0 yoffset=17 xadvance=33 page=0 chnl=0 letter="4"
char id=54 x=333 y=64 width=32 height=45 xoffset=3 yoffset=16 xadvance=35 page=0 chnl=0 letter="6"
char id=38 x=367 y=64 width=31 height=45 xoffset=3 yoffset=17 xadvance=33 page=0 chnl=0 letter="&"
char id=88 x=400 y=64 width=34 height=44 xoffset=1 yoffset=18 xadvance=33 page=0 chnl=0 letter="X"
char id=47 x=436 y=64 width=25 height=44 xoffset=1 yoffset=16 xadvance=23 page=0 chnl=0 letter="/"
char id=92 x=463 y=64 width=25 height=44 xoffset=1 yoffset=16 xadvance=23 page=0 chnl=0 letter="\"
char id=105 x=490 y=64 width=13 height=44 xoffset=3 yoffset=17 xadvance=16 page=0 chnl=0 letter="i"
char id=71 x=2 y=112 width=35 height=43 xoffset=2 yoffset=19 xadvance=35 page=0 chnl=0 letter="G"
char id=82 x=39 y=112 width=35 height=43 xoffset=1 yoffset=19 xadvance=34 page=0 chnl=0 letter="R"
char id=69 x=76 y=112 width=29 height=43 xoffset=3 yoffset=19 xadvance=31 page=0 chnl=0 letter="E"
char id=74 x=107 y=112 width=27 height=43 xoffset=1 yoffset=19 xadvance=28 page=0 chnl=0 letter="J"
char id=73 x=136 y=112 width=22 height=43 xoffset=2 yoffset=19 xadvance=24 page=0 chnl=0 letter="I"
char id=35 x=160 y=112 width=49 height=42 xoffset=0 yoffset=20 xadvance=58 page=0 chnl=0 letter="#"
char id=89 x=211 y=112 width=37 height=42 xoffset=1 yoffset=20 xadvance=36 page=0 chnl=0 letter="Y"
char id=80 x=250 y=112 width=36 height=42 xoffset=1 yoffset=19 xadvance=36 page=0 chnl=0 letter="P"
char id=79 x=288 y=112 width=36 height=42 xoffset=2 yoffset=20 xadvance=38 page=0 chnl=0 letter="O"
char id=84 x=326 y=112 width=34 height=42 xoffset=1 yoffset=19 xadvance=33 page=0 chnl=0 letter="T"
char id=56 x=362 y=112 width=33 height=42 xoffset=3 yoffset=19 xadvance=35 page=0 chnl=0 letter="8"
char id=85 x=397 y=112 width=32 height=42 xoffset=3 yoffset=19 xadvance=35 page=0 chnl=0 letter="U"
char id=50 x=431 y=112 width=32 height=42 xoffset=2 yoffset=19 xadvance=34 page=0 chnl=0 letter="2"
char id=75 x=465 y=112 width=32 height=42 xoffset=3 yoffset=20 xadvance=33 page=0 chnl=0 letter="K"
char id=51 x=2 y=157 width=31 height=42 xoffset=3 yoffset=19 xadvance=32 page=0 chnl=0 letter="3"
char id=78 x=35 y=157 width=31 height=42 xoffset=3 yoffset=20 xadvance=34 page=0 chnl=0 letter="N"
char id=72 x=68 y=157 width=30 height=42 xoffset=4 yoffset=19 xadvance=35 page=0 chnl=0 letter="H"
char id=83 x=100 y=157 width=27 height=42 xoffset=3 yoffset=19 xadvance=30 page=0 chnl=0 letter="S"
char id=70 x=129 y=157 width=27 height=42 xoffset=3 yoffset=20 xadvance=28 page=0 chnl=0 letter="F"
char id=55 x=158 y=157 width=27 height=42 xoffset=2 yoffset=20 xadvance=28 page=0 chnl=0 letter="7"
char id=68 x=187 y=157 width=36 height=41 xoffset=2 yoffset=20 xadvance=38 page=0 chnl=0 letter="D"
char id=66 x=225 y=157 width=33 height=41 xoffset=2 yoffset=20 xadvance=34 page=0 chnl=0 letter="B"
char id=67 x=260 y=157 width=32 height=41 xoffset=2 yoffset=20 xadvance=33 page=0 chnl=0 letter="C"
char id=90 x=294 y=157 width=29 height=41 xoffset=2 yoffset=21 xadvance=37 page=0 chnl=0 letter="Z"
char id=53 x=325 y=157 width=28 height=41 xoffset=3 yoffset=19 xadvance=31 page=0 chnl=0 letter="5"
char id=76 x=355 y=157 width=25 height=41 xoffset=3 yoffset=20 xadvance=27 page=0 chnl=0 letter="L"
char id=49 x=382 y=157 width=17 height=41 xoffset=2 yoffset=19 xadvance=21 page=0 chnl=0 letter="1"
char id=37 x=401 y=157 width=42 height=40 xoffset=2 yoffset=20 xadvance=44 page=0 chnl=0 letter="%"
char id=48 x=445 y=157 width=36 height=38 xoffset=2 yoffset=21 xadvance=37 page=0 chnl=0 letter="0"
char id=120 x=2 y=201 width=30 height=35 xoffset=1 yoffset=28 xadvance=29 page=0 chnl=0 letter="x"
char id=119 x=34 y=201 width=39 height=34 xoffset=1 yoffset=28 xadvance=38 page=0 chnl=0 letter="w"
char id=118 x=75 y=201 width=32 height=34 xoffset=1 yoffset=29 xadvance=31 page=0 chnl=0 letter="v"
char id=110 x=109 y=201 width=26 height=34 xoffset=3 yoffset=28 xadvance=30 page=0 chnl=0 letter="n"
char id=59 x=137 y=201 width=12 height=34 xoffset=3 yoffset=31 xadvance=15 page=0 chnl=0 letter=";"
char id=109 x=151 y=201 width=39 height=33 xoffset=3 yoffset=29 xadvance=43 page=0 chnl=0 letter="m"
char id=43 x=192 y=201 width=29 height=33 xoffset=2 yoffset=23 xadvance=30 page=0 chnl=0 letter="+"
char id=117 x=223 y=201 width=27 height=33 xoffset=2 yoffset=30 xadvance=28 page=0 chnl=0 letter="u"
char id=122 x=252 y=201 width=30 height=32 xoffset=1 yoffset=30 xadvance=30 page=0 chnl=0 letter="z"
char id=111 x=284 y=201 width=28 height=32 xoffset=2 yoffset=29 xadvance=30 page=0 chnl=0 letter="o"
char id=115 x=314 y=201 width=24 height=32 xoffset=2 yoffset=30 xadvance=25 page=0 chnl=0 letter="s"
char id=99 x=340 y=201 width=27 height=31 xoffset=2 yoffset=31 xadvance=27 page=0 chnl=0 letter="c"
char id=97 x=369 y=201 width=25 height=31 xoffset=2 yoffset=31 xadvance=27 page=0 chnl=0 letter="a"
char id=101 x=396 y=201 width=26 height=30 xoffset=3 yoffset=30 xadvance=28 page=0 chnl=0 letter="e"
char id=114 x=424 y=201 width=22 height=30 xoffset=3 yoffset=31 xadvance=23 page=0 chnl=0 letter="r"
char id=58 x=448 y=201 width=14 height=28 xoffset=3 yoffset=33 xadvance=17 page=0 chnl=0 letter=":"
char id=42 x=464 y=201 width=26 height=24 xoffset=2 yoffset=20 xadvance=29 page=0 chnl=0 letter="*"
char id=61 x=492 y=201 width=14 height=19 xoffset=3 yoffset=33 xadvance=17 page=0 chnl=0 letter="="
char id=34 x=2 y=238 width=26 height=16 xoffset=2 yoffset=8 xadvance=27 page=0 chnl=0 letter="""
char id=44 x=30 y=238 width=13 height=16 xoffset=2 yoffset=49 xadvance=15 page=0 chnl=0 letter=","
char id=39 x=45 y=238 width=13 height=15 xoffset=2 yoffset=9 xadvance=13 page=0 chnl=0 letter="'"
char id=46 x=60 y=238 width=13 height=11 xoffset=2 yoffset=49 xadvance=15 page=0 chnl=0 letter="."
char id=45 x=75 y=238 width=15 height=9 xoffset=2 yoffset=38 xadvance=17 page=0 chnl=0 letter="-"
char id=95 x=92 y=238 width=27 height=3 xoffset=1 yoffset=63 xadvance=27 page=0 chnl=0 letter="_"
char id=32 x=141 y=238 width=0 height=0 xoffset=-103 yoffset=180 xadvance=17 page=0 chnl=0 letter="space"
kernings count=131
kerning first=112 second=106 amount=-2
kerning first=112 second=89 amount=-4
kerning first=112 second=80 amount=-2
kerning first=112 second=84 amount=-5
kerning first=104 second=89 amount=-5
kerning first=104 second=84 amount=-5
kerning first=113 second=68 amount=-3
kerning first=98 second=106 amount=-2
kerning first=98 second=86 amount=-2
kerning first=98 second=89 amount=-6
kerning first=98 second=80 amount=-2
kerning first=98 second=84 amount=-6
kerning first=107 second=106 amount=-3
kerning first=102 second=103 amount=-5
kerning first=102 second=65 amount=-5
kerning first=87 second=106 amount=-9
kerning first=87 second=65 amount=-9
kerning first=121 second=80 amount=-2
kerning first=121 second=84 amount=-5
kerning first=116 second=106 amount=-2
kerning first=86 second=106 amount=-10
kerning first=86 second=103 amount=-13
kerning first=86 second=113 amount=-9
kerning first=86 second=100 amount=-11
kerning first=86 second=65 amount=-17
kerning first=86 second=74 amount=-10
kerning first=86 second=111 amount=-10
kerning first=86 second=115 amount=-7
kerning first=86 second=99 amount=-7
kerning first=86 second=101 amount=-10
kerning first=65 second=106 amount=-7
kerning first=65 second=87 amount=-12
kerning first=65 second=86 amount=-13
kerning first=65 second=89 amount=-11
kerning first=65 second=80 amount=-8
kerning first=65 second=84 amount=-11
kerning first=65 second=118 amount=-8
kerning first=81 second=106 amount=-7
kerning first=71 second=106 amount=-5
kerning first=71 second=89 amount=-8
kerning first=71 second=84 amount=-8
kerning first=82 second=106 amount=-9
kerning first=69 second=106 amount=-4
kerning first=73 second=106 amount=-4
kerning first=89 second=106 amount=-8
kerning first=89 second=103 amount=-15
kerning first=89 second=113 amount=-12
kerning first=89 second=100 amount=-13
kerning first=89 second=121 amount=-9
kerning first=89 second=65 amount=-17
kerning first=89 second=74 amount=-10
kerning first=89 second=120 amount=-10
kerning first=89 second=119 amount=-8
kerning first=89 second=118 amount=-9
kerning first=89 second=122 amount=-9
kerning first=89 second=111 amount=-11
kerning first=89 second=115 amount=-10
kerning first=89 second=99 amount=-12
kerning first=89 second=97 amount=-11
kerning first=89 second=101 amount=-11
kerning first=80 second=103 amount=-7
kerning first=80 second=65 amount=-11
kerning first=80 second=74 amount=-5
kerning first=84 second=103 amount=-10
kerning first=84 second=113 amount=-10
kerning first=84 second=100 amount=-10
kerning first=84 second=121 amount=-9
kerning first=84 second=65 amount=-9
kerning first=84 second=74 amount=-10
kerning first=84 second=120 amount=-9
kerning first=84 second=119 amount=-10
kerning first=84 second=118 amount=-11
kerning first=84 second=110 amount=-8
kerning first=84 second=117 amount=-10
kerning first=84 second=122 amount=-9
kerning first=84 second=111 amount=-10
kerning first=84 second=115 amount=-8
kerning first=84 second=99 amount=-9
kerning first=84 second=97 amount=-6
kerning first=84 second=101 amount=-10
kerning first=84 second=114 amount=-7
kerning first=75 second=106 amount=-6
kerning first=75 second=118 amount=-5
kerning first=83 second=106 amount=-7
kerning first=70 second=106 amount=-7
kerning first=70 second=103 amount=-6
kerning first=70 second=65 amount=-11
kerning first=70 second=120 amount=-7
kerning first=70 second=111 amount=-5
kerning first=67 second=119 amount=-5
kerning first=67 second=118 amount=-5
kerning first=90 second=106 amount=-4
kerning first=76 second=106 amount=-9
kerning first=76 second=87 amount=-9
kerning first=76 second=86 amount=-11
kerning first=76 second=89 amount=-11
kerning first=76 second=80 amount=-7
kerning first=76 second=84 amount=-9
kerning first=76 second=118 amount=-7
kerning first=120 second=84 amount=-5
kerning first=119 second=65 amount=-2
kerning first=119 second=84 amount=-5
kerning first=119 second=90 amount=-3
kerning first=118 second=65 amount=-5
kerning first=118 second=84 amount=-5
kerning first=118 second=90 amount=-6
kerning first=110 second=106 amount=-2
kerning first=110 second=89 amount=-5
kerning first=110 second=84 amount=-6
kerning first=109 second=106 amount=-2
kerning first=109 second=89 amount=-3
kerning first=109 second=80 amount=-2
kerning first=109 second=84 amount=-5
kerning first=122 second=84 amount=-5
kerning first=111 second=106 amount=-2
kerning first=111 second=89 amount=-4
kerning first=111 second=80 amount=-2
kerning first=111 second=84 amount=-5
kerning first=115 second=84 amount=-5
kerning first=99 second=106 amount=-2
kerning first=99 second=84 amount=-7
kerning first=97 second=106 amount=-2
kerning first=97 second=89 amount=-3
kerning first=97 second=84 amount=-5
kerning first=101 second=106 amount=-2
kerning first=101 second=89 amount=-3
kerning first=101 second=84 amount=-6
kerning first=114 second=65 amount=-4
kerning first=114 second=74 amount=-5
kerning first=114 second=84 amount=-5
kerning first=114 second=90 amount=-5
