info face="GROBOLD" size=72 bold=0 italic=0 charset="" unicode=0 stretchH=100 smooth=1 aa=1 padding=0,0,0,0 spacing=2,2
common lineHeight=81 base=58 scaleW=1024 scaleH=512 pages=1 packed=0
page id=0 file="Grobold-hd.png"
chars count=95
char id=32     x=577   y=293   width=0     height=0     xoffset=0     yoffset=67    xadvance=22    page=0 chnl=0 letter="space"
char id=33     x=149   y=2     width=35    height=77    xoffset=21    yoffset=-7    xadvance=56    page=0 chnl=0 letter="!"
char id=34     x=333   y=293   width=33    height=27    xoffset=3     yoffset=5     xadvance=33    page=0 chnl=0 letter="""
char id=35     x=2     y=156   width=76    height=67    xoffset=1     yoffset=1     xadvance=71    page=0 chnl=0 letter="#"
char id=36     x=2     y=2     width=52    height=81    xoffset=0     yoffset=-6    xadvance=46    page=0 chnl=0 letter="$"
char id=37     x=370   y=156   width=43    height=67    xoffset=17    yoffset=-0    xadvance=54    page=0 chnl=0 letter="%"
char id=38     x=80    y=156   width=71    height=67    xoffset=-1    yoffset=1     xadvance=61    page=0 chnl=0 letter="&"
char id=39     x=368   y=293   width=18    height=22    xoffset=4     yoffset=-10   xadvance=18    page=0 chnl=0 letter="'"
char id=40     x=186   y=2     width=27    height=77    xoffset=6     yoffset=-5    xadvance=29    page=0 chnl=0 letter="("
char id=41     x=215   y=2     width=27    height=77    xoffset=3     yoffset=-5    xadvance=28    page=0 chnl=0 letter=")"
char id=42     x=297   y=293   width=34    height=33    xoffset=3     yoffset=8     xadvance=34    page=0 chnl=0 letter="*"
char id=43     x=346   y=225   width=54    height=55    xoffset=4     yoffset=8     xadvance=56    page=0 chnl=0 letter="+"
char id=44     x=388   y=293   width=18    height=22    xoffset=2     yoffset=52    xadvance=17    page=0 chnl=0 letter=","
char id=45     x=484   y=293   width=30    height=16    xoffset=5     yoffset=31    xadvance=33    page=0 chnl=0 letter="-"
char id=46     x=516   y=293   width=15    height=14    xoffset=3     yoffset=53    xadvance=16    page=0 chnl=0 letter="."
char id=47     x=415   y=156   width=41    height=67    xoffset=2     yoffset=-0    xadvance=37    page=0 chnl=0 letter="/"
char id=48     x=697   y=85    width=55    height=68    xoffset=0     yoffset=1     xadvance=49    page=0 chnl=0 letter="0"
char id=49     x=458   y=156   width=41    height=67    xoffset=-0    yoffset=1     xadvance=37    page=0 chnl=0 letter="1"
char id=50     x=639   y=85    width=56    height=68    xoffset=-1    yoffset=-1    xadvance=49    page=0 chnl=0 letter="2"
char id=51     x=255   y=85    width=53    height=69    xoffset=-0    yoffset=-0    xadvance=46    page=0 chnl=0 letter="3"
char id=52     x=270   y=156   width=51    height=67    xoffset=-0    yoffset=-0    xadvance=43    page=0 chnl=0 letter="4"
char id=53     x=109   y=225   width=47    height=65    xoffset=0     yoffset=3     xadvance=41    page=0 chnl=0 letter="5"
char id=54     x=364   y=85    width=50    height=69    xoffset=-1    yoffset=-1    xadvance=40    page=0 chnl=0 letter="6"
char id=55     x=786   y=156   width=47    height=66    xoffset=-1    yoffset=1     xadvance=39    page=0 chnl=0 letter="7"
char id=56     x=864   y=85    width=50    height=68    xoffset=-1    yoffset=-0    xadvance=43    page=0 chnl=0 letter="8"
char id=57     x=416   y=85    width=50    height=69    xoffset=-1    yoffset=-0    xadvance=41    page=0 chnl=0 letter="9"
char id=58     x=254   y=293   width=18    height=40    xoffset=1     yoffset=27    xadvance=13    page=0 chnl=0 letter=":"
char id=59     x=274   y=293   width=21    height=34    xoffset=-1    yoffset=40    xadvance=15    page=0 chnl=0 letter=";"
char id=60     x=2     y=293   width=48    height=48    xoffset=8     yoffset=19    xadvance=57    page=0 chnl=0 letter="<"
char id=61     x=196   y=293   width=56    height=44    xoffset=0     yoffset=21    xadvance=50    page=0 chnl=0 letter="="
char id=62     x=52    y=293   width=48    height=48    xoffset=8     yoffset=19    xadvance=57    page=0 chnl=0 letter=">"
char id=63     x=89    y=2     width=58    height=79    xoffset=0     yoffset=-9    xadvance=52    page=0 chnl=0 letter="?"
char id=64     x=556   y=156   width=62    height=66    xoffset=0     yoffset=2     xadvance=56    page=0 chnl=0 letter="@"
char id=65     x=408   y=2     width=75    height=72    xoffset=-4    yoffset=-3    xadvance=61    page=0 chnl=0 letter="A"
char id=66     x=212   y=156   width=56    height=67    xoffset=2     yoffset=1     xadvance=50    page=0 chnl=0 letter="B"
char id=67     x=917   y=2     width=62    height=70    xoffset=-2    yoffset=-0    xadvance=54    page=0 chnl=0 letter="C"
char id=68     x=139   y=85    width=58    height=69    xoffset=3     yoffset=-1    xadvance=52    page=0 chnl=0 letter="D"
char id=69     x=835   y=156   width=46    height=66    xoffset=3     yoffset=1     xadvance=43    page=0 chnl=0 letter="E"
char id=70     x=883   y=156   width=46    height=66    xoffset=3     yoffset=1     xadvance=39    page=0 chnl=0 letter="F"
char id=71     x=2     y=85    width=67    height=69    xoffset=-1    yoffset=1     xadvance=59    page=0 chnl=0 letter="G"
char id=72     x=620   y=156   width=57    height=66    xoffset=1     yoffset=2     xadvance=52    page=0 chnl=0 letter="H"
char id=73     x=501   y=156   width=28    height=67    xoffset=3     yoffset=1     xadvance=27    page=0 chnl=0 letter="I"
char id=74     x=916   y=85    width=47    height=68    xoffset=-1    yoffset=1     xadvance=42    page=0 chnl=0 letter="J"
char id=75     x=624   y=2     width=53    height=72    xoffset=2     yoffset=-2    xadvance=46    page=0 chnl=0 letter="K"
char id=76     x=323   y=156   width=45    height=67    xoffset=3     yoffset=2     xadvance=40    page=0 chnl=0 letter="L"
char id=77     x=329   y=2     width=77    height=74    xoffset=-3    yoffset=-2    xadvance=64    page=0 chnl=0 letter="M"
char id=78     x=153   y=156   width=57    height=67    xoffset=3     yoffset=1     xadvance=55    page=0 chnl=0 letter="N"
char id=79     x=848   y=2     width=67    height=70    xoffset=-2    yoffset=-0    xadvance=55    page=0 chnl=0 letter="O"
char id=80     x=754   y=85    width=54    height=68    xoffset=3     yoffset=1     xadvance=46    page=0 chnl=0 letter="P"
char id=81     x=555   y=2     width=67    height=72    xoffset=-3    yoffset=-0    xadvance=56    page=0 chnl=0 letter="Q"
char id=82     x=199   y=85    width=54    height=69    xoffset=2     yoffset=-0    xadvance=48    page=0 chnl=0 letter="R"
char id=83     x=810   y=85    width=52    height=68    xoffset=-2    yoffset=1     xadvance=43    page=0 chnl=0 letter="S"
char id=84     x=965   y=85    width=46    height=68    xoffset=-0    yoffset=-0    xadvance=38    page=0 chnl=0 letter="T"
char id=85     x=310   y=85    width=52    height=69    xoffset=0     yoffset=1     xadvance=46    page=0 chnl=0 letter="U"
char id=86     x=485   y=2     width=68    height=72    xoffset=-3    yoffset=-0    xadvance=54    page=0 chnl=0 letter="V"
char id=87     x=244   y=2     width=83    height=76    xoffset=-3    yoffset=-4    xadvance=71    page=0 chnl=0 letter="W"
char id=88     x=71    y=85    width=66    height=69    xoffset=-1    yoffset=1     xadvance=58    page=0 chnl=0 letter="X"
char id=89     x=571   y=85    width=66    height=68    xoffset=-4    yoffset=-0    xadvance=50    page=0 chnl=0 letter="Y"
char id=90     x=502   y=85    width=67    height=68    xoffset=-1    yoffset=1     xadvance=59    page=0 chnl=0 letter="Z"
char id=91     x=733   y=2     width=23    height=72    xoffset=7     yoffset=5     xadvance=27    page=0 chnl=0 letter="["
char id=92     x=468   y=85    width=32    height=69    xoffset=8     yoffset=8     xadvance=41    page=0 chnl=0 letter="\"
char id=93     x=758   y=2     width=23    height=72    xoffset=3     yoffset=5     xadvance=27    page=0 chnl=0 letter="]"
char id=94     x=102   y=293   width=48    height=48    xoffset=3     yoffset=5     xadvance=47    page=0 chnl=0 letter="^"
char id=95     x=533   y=293   width=42    height=12    xoffset=0     yoffset=68    xadvance=36    page=0 chnl=0 letter="_"
char id=96     x=458   y=293   width=24    height=18    xoffset=12    yoffset=4     xadvance=46    page=0 chnl=0 letter="`"
char id=97     x=577   y=225   width=48    height=51    xoffset=-1    yoffset=16    xadvance=43    page=0 chnl=0 letter="a"
char id=98     x=679   y=156   width=52    height=66    xoffset=2     yoffset=1     xadvance=46    page=0 chnl=0 letter="b"
char id=99     x=627   y=225   width=46    height=51    xoffset=-1    yoffset=16    xadvance=38    page=0 chnl=0 letter="c"
char id=100    x=733   y=156   width=51    height=66    xoffset=-1    yoffset=2     xadvance=48    page=0 chnl=0 letter="d"
char id=101    x=526   y=225   width=49    height=51    xoffset=-1    yoffset=17    xadvance=41    page=0 chnl=0 letter="e"
char id=102    x=48    y=225   width=34    height=66    xoffset=1     yoffset=2     xadvance=30    page=0 chnl=0 letter="f"
char id=103    x=798   y=2     width=48    height=71    xoffset=-1    yoffset=11    xadvance=43    page=0 chnl=0 letter="g"
char id=104    x=2     y=225   width=44    height=66    xoffset=2     yoffset=2     xadvance=42    page=0 chnl=0 letter="h"
char id=105    x=531   y=156   width=23    height=67    xoffset=3     yoffset=1     xadvance=22    page=0 chnl=0 letter="i"
char id=106    x=56    y=2     width=31    height=80    xoffset=0     yoffset=1     xadvance=28    page=0 chnl=0 letter="j"
char id=107    x=931   y=156   width=46    height=66    xoffset=2     yoffset=2     xadvance=42    page=0 chnl=0 letter="k"
char id=108    x=84    y=225   width=23    height=66    xoffset=3     yoffset=2     xadvance=22    page=0 chnl=0 letter="l"
char id=109    x=763   y=225   width=67    height=50    xoffset=2     yoffset=18    xadvance=64    page=0 chnl=0 letter="m"
char id=110    x=932   y=225   width=45    height=50    xoffset=2     yoffset=18    xadvance=43    page=0 chnl=0 letter="n"
char id=111    x=471   y=225   width=53    height=51    xoffset=-1    yoffset=17    xadvance=44    page=0 chnl=0 letter="o"
char id=112    x=158   y=225   width=51    height=63    xoffset=2     yoffset=17    xadvance=46    page=0 chnl=0 letter="p"
char id=113    x=211   y=225   width=51    height=63    xoffset=-1    yoffset=17    xadvance=46    page=0 chnl=0 letter="q"
char id=114    x=979   y=225   width=36    height=50    xoffset=2     yoffset=17    xadvance=30    page=0 chnl=0 letter="r"
char id=115    x=722   y=225   width=39    height=51    xoffset=1     yoffset=17    xadvance=32    page=0 chnl=0 letter="s"
char id=116    x=312   y=225   width=32    height=61    xoffset=1     yoffset=7     xadvance=27    page=0 chnl=0 letter="t"
char id=117    x=675   y=225   width=45    height=51    xoffset=2     yoffset=17    xadvance=43    page=0 chnl=0 letter="u"
char id=118    x=883   y=225   width=47    height=50    xoffset=-2    yoffset=18    xadvance=37    page=0 chnl=0 letter="v"
char id=119    x=402   y=225   width=67    height=51    xoffset=-2    yoffset=16    xadvance=57    page=0 chnl=0 letter="w"
char id=120    x=832   y=225   width=49    height=50    xoffset=-1    yoffset=17    xadvance=40    page=0 chnl=0 letter="x"
char id=121    x=264   y=225   width=46    height=62    xoffset=-1    yoffset=18    xadvance=36    page=0 chnl=0 letter="y"
char id=122    x=152   y=293   width=42    height=48    xoffset=-1    yoffset=19    xadvance=35    page=0 chnl=0 letter="z"
char id=123    x=679   y=2     width=25    height=72    xoffset=3     yoffset=5     xadvance=27    page=0 chnl=0 letter="{"
char id=124    x=783   y=2     width=13    height=72    xoffset=11    yoffset=5     xadvance=28    page=0 chnl=0 letter="|"
char id=125    x=706   y=2     width=25    height=72    xoffset=3     yoffset=5     xadvance=27    page=0 chnl=0 letter="}"
char id=126    x=408   y=293   width=48    height=20    xoffset=8     yoffset=33    xadvance=57    page=0 chnl=0 letter="~"
