info face="DoctorSoosBold" size=16 bold=0 italic=0 charset="" unicode=0 stretchH=100 smooth=1 aa=1 padding=0,0,0,0 spacing=1,1
common lineHeight=21 base=13 scaleW=128 scaleH=128 pages=1 packed=0
page id=0 file="DoctorSoosBold.png"
chars count=85
char id=103 x=1 y=1 width=8 height=14 xoffset=0 yoffset=4 xadvance=7 page=0 chnl=0 letter="g"
char id=106 x=10 y=1 width=7 height=14 xoffset=-2 yoffset=3 xadvance=4 page=0 chnl=0 letter="j"
char id=104 x=18 y=1 width=8 height=13 xoffset=0 yoffset=1 xadvance=7 page=0 chnl=0 letter="h"
char id=113 x=27 y=1 width=8 height=13 xoffset=0 yoffset=5 xadvance=6 page=0 chnl=0 letter="q"
char id=41 x=36 y=1 width=6 height=13 xoffset=0 yoffset=2 xadvance=4 page=0 chnl=0 letter=")"
char id=40 x=43 y=1 width=6 height=13 xoffset=0 yoffset=2 xadvance=5 page=0 chnl=0 letter="("
char id=64 x=50 y=1 width=13 height=12 xoffset=0 yoffset=4 xadvance=13 page=0 chnl=0 letter="@"
char id=112 x=64 y=1 width=8 height=12 xoffset=0 yoffset=5 xadvance=7 page=0 chnl=0 letter="p"
char id=98 x=73 y=1 width=8 height=12 xoffset=0 yoffset=2 xadvance=7 page=0 chnl=0 letter="b"
char id=107 x=82 y=1 width=8 height=12 xoffset=0 yoffset=2 xadvance=7 page=0 chnl=0 letter="k"
char id=33 x=91 y=1 width=6 height=12 xoffset=0 yoffset=2 xadvance=4 page=0 chnl=0 letter="!"
char id=86 x=98 y=1 width=10 height=11 xoffset=0 yoffset=3 xadvance=8 page=0 chnl=0 letter="V"
char id=81 x=109 y=1 width=10 height=11 xoffset=0 yoffset=3 xadvance=8 page=0 chnl=0 letter="Q"
char id=54 x=1 y=16 width=9 height=11 xoffset=0 yoffset=3 xadvance=7 page=0 chnl=0 letter="6"
char id=65 x=11 y=16 width=9 height=11 xoffset=0 yoffset=3 xadvance=8 page=0 chnl=0 letter="A"
char id=80 x=21 y=16 width=9 height=11 xoffset=0 yoffset=3 xadvance=8 page=0 chnl=0 letter="P"
char id=77 x=31 y=16 width=9 height=11 xoffset=0 yoffset=3 xadvance=8 page=0 chnl=0 letter="M"
char id=88 x=41 y=16 width=9 height=11 xoffset=0 yoffset=3 xadvance=7 page=0 chnl=0 letter="X"
char id=82 x=51 y=16 width=9 height=11 xoffset=0 yoffset=3 xadvance=7 page=0 chnl=0 letter="R"
char id=84 x=61 y=16 width=9 height=11 xoffset=0 yoffset=3 xadvance=7 page=0 chnl=0 letter="T"
char id=56 x=71 y=16 width=9 height=11 xoffset=0 yoffset=3 xadvance=7 page=0 chnl=0 letter="8"
char id=100 x=81 y=16 width=8 height=11 xoffset=0 yoffset=3 xadvance=6 page=0 chnl=0 letter="d"
char id=36 x=90 y=16 width=8 height=11 xoffset=0 yoffset=3 xadvance=6 page=0 chnl=0 letter="$"
char id=52 x=99 y=16 width=8 height=11 xoffset=0 yoffset=3 xadvance=7 page=0 chnl=0 letter="4"
char id=121 x=108 y=16 width=8 height=11 xoffset=0 yoffset=6 xadvance=7 page=0 chnl=0 letter="y"
char id=38 x=117 y=16 width=8 height=11 xoffset=0 yoffset=3 xadvance=7 page=0 chnl=0 letter="&"
char id=50 x=1 y=28 width=8 height=11 xoffset=0 yoffset=3 xadvance=7 page=0 chnl=0 letter="2"
char id=69 x=10 y=28 width=8 height=11 xoffset=0 yoffset=3 xadvance=7 page=0 chnl=0 letter="E"
char id=116 x=19 y=28 width=7 height=11 xoffset=0 yoffset=3 xadvance=5 page=0 chnl=0 letter="t"
char id=102 x=27 y=28 width=7 height=11 xoffset=0 yoffset=3 xadvance=6 page=0 chnl=0 letter="f"
char id=108 x=35 y=28 width=4 height=11 xoffset=0 yoffset=2 xadvance=3 page=0 chnl=0 letter="l"
char id=105 x=40 y=28 width=4 height=11 xoffset=0 yoffset=3 xadvance=3 page=0 chnl=0 letter="i"
char id=35 x=45 y=28 width=12 height=10 xoffset=0 yoffset=4 xadvance=13 page=0 chnl=0 letter="#"
char id=87 x=58 y=28 width=11 height=10 xoffset=0 yoffset=4 xadvance=10 page=0 chnl=0 letter="W"
char id=71 x=70 y=28 width=9 height=10 xoffset=0 yoffset=4 xadvance=7 page=0 chnl=0 letter="G"
char id=57 x=80 y=28 width=9 height=10 xoffset=0 yoffset=4 xadvance=8 page=0 chnl=0 letter="9"
char id=89 x=90 y=28 width=9 height=10 xoffset=0 yoffset=4 xadvance=8 page=0 chnl=0 letter="Y"
char id=68 x=100 y=28 width=9 height=10 xoffset=0 yoffset=4 xadvance=8 page=0 chnl=0 letter="D"
char id=79 x=110 y=28 width=9 height=10 xoffset=0 yoffset=4 xadvance=8 page=0 chnl=0 letter="O"
char id=85 x=1 y=40 width=9 height=10 xoffset=0 yoffset=4 xadvance=7 page=0 chnl=0 letter="U"
char id=72 x=11 y=40 width=9 height=10 xoffset=0 yoffset=4 xadvance=7 page=0 chnl=0 letter="H"
char id=75 x=21 y=40 width=9 height=10 xoffset=0 yoffset=4 xadvance=7 page=0 chnl=0 letter="K"
char id=66 x=31 y=40 width=9 height=10 xoffset=0 yoffset=4 xadvance=7 page=0 chnl=0 letter="B"
char id=63 x=41 y=40 width=8 height=10 xoffset=0 yoffset=3 xadvance=7 page=0 chnl=0 letter="?"
char id=51 x=50 y=40 width=8 height=10 xoffset=0 yoffset=4 xadvance=7 page=0 chnl=0 letter="3"
char id=78 x=59 y=40 width=8 height=10 xoffset=0 yoffset=4 xadvance=7 page=0 chnl=0 letter="N"
char id=67 x=68 y=40 width=8 height=10 xoffset=0 yoffset=4 xadvance=7 page=0 chnl=0 letter="C"
char id=90 x=77 y=40 width=8 height=10 xoffset=0 yoffset=4 xadvance=8 page=0 chnl=0 letter="Z"
char id=83 x=86 y=40 width=8 height=10 xoffset=0 yoffset=4 xadvance=6 page=0 chnl=0 letter="S"
char id=70 x=95 y=40 width=8 height=10 xoffset=0 yoffset=4 xadvance=6 page=0 chnl=0 letter="F"
char id=47 x=104 y=40 width=7 height=10 xoffset=0 yoffset=3 xadvance=5 page=0 chnl=0 letter="/"
char id=92 x=112 y=40 width=7 height=10 xoffset=0 yoffset=3 xadvance=5 page=0 chnl=0 letter="\"
char id=74 x=120 y=40 width=7 height=10 xoffset=0 yoffset=4 xadvance=6 page=0 chnl=0 letter="J"
char id=55 x=1 y=51 width=7 height=10 xoffset=0 yoffset=4 xadvance=6 page=0 chnl=0 letter="7"
char id=76 x=9 y=51 width=7 height=10 xoffset=0 yoffset=4 xadvance=6 page=0 chnl=0 letter="L"
char id=73 x=17 y=51 width=6 height=10 xoffset=0 yoffset=4 xadvance=5 page=0 chnl=0 letter="I"
char id=49 x=24 y=51 width=5 height=10 xoffset=0 yoffset=3 xadvance=4 page=0 chnl=0 letter="1"
char id=37 x=30 y=51 width=11 height=9 xoffset=0 yoffset=4 xadvance=9 page=0 chnl=0 letter="%"
char id=48 x=42 y=51 width=9 height=9 xoffset=0 yoffset=4 xadvance=8 page=0 chnl=0 letter="0"
char id=53 x=52 y=51 width=8 height=9 xoffset=0 yoffset=4 xadvance=7 page=0 chnl=0 letter="5"
char id=43 x=61 y=51 width=8 height=9 xoffset=0 yoffset=4 xadvance=6 page=0 chnl=0 letter="+"
char id=110 x=70 y=51 width=7 height=9 xoffset=0 yoffset=5 xadvance=6 page=0 chnl=0 letter="n"
char id=119 x=78 y=51 width=10 height=8 xoffset=0 yoffset=6 xadvance=8 page=0 chnl=0 letter="w"
char id=109 x=89 y=51 width=10 height=8 xoffset=0 yoffset=6 xadvance=9 page=0 chnl=0 letter="m"
char id=118 x=100 y=51 width=8 height=8 xoffset=0 yoffset=6 xadvance=6 page=0 chnl=0 letter="v"
char id=120 x=109 y=51 width=8 height=8 xoffset=0 yoffset=6 xadvance=6 page=0 chnl=0 letter="x"
char id=111 x=118 y=51 width=8 height=8 xoffset=0 yoffset=6 xadvance=6 page=0 chnl=0 letter="o"
char id=122 x=1 y=62 width=8 height=8 xoffset=0 yoffset=6 xadvance=6 page=0 chnl=0 letter="z"
char id=117 x=10 y=62 width=7 height=8 xoffset=0 yoffset=6 xadvance=6 page=0 chnl=0 letter="u"
char id=115 x=18 y=62 width=7 height=8 xoffset=0 yoffset=6 xadvance=5 page=0 chnl=0 letter="s"
char id=99 x=26 y=62 width=7 height=8 xoffset=0 yoffset=6 xadvance=6 page=0 chnl=0 letter="c"
char id=97 x=34 y=62 width=7 height=8 xoffset=0 yoffset=6 xadvance=6 page=0 chnl=0 letter="a"
char id=114 x=42 y=62 width=7 height=8 xoffset=0 yoffset=6 xadvance=5 page=0 chnl=0 letter="r"
char id=59 x=50 y=62 width=4 height=8 xoffset=0 yoffset=6 xadvance=3 page=0 chnl=0 letter=";"
char id=101 x=55 y=62 width=7 height=7 xoffset=0 yoffset=6 xadvance=6 page=0 chnl=0 letter="e"
char id=58 x=63 y=62 width=5 height=7 xoffset=0 yoffset=7 xadvance=3 page=0 chnl=0 letter=":"
char id=42 x=69 y=62 width=7 height=6 xoffset=0 yoffset=4 xadvance=6 page=0 chnl=0 letter="*"
char id=61 x=77 y=62 width=5 height=5 xoffset=0 yoffset=7 xadvance=3 page=0 chnl=0 letter="="
char id=34 x=83 y=62 width=7 height=4 xoffset=0 yoffset=1 xadvance=6 page=0 chnl=0 letter="""
char id=44 x=91 y=62 width=4 height=4 xoffset=0 yoffset=10 xadvance=3 page=0 chnl=0 letter=","
char id=39 x=96 y=62 width=4 height=4 xoffset=0 yoffset=1 xadvance=3 page=0 chnl=0 letter="'"
char id=46 x=101 y=62 width=4 height=3 xoffset=0 yoffset=10 xadvance=3 page=0 chnl=0 letter="."
char id=95 x=106 y=62 width=7 height=2 xoffset=0 yoffset=13 xadvance=6 page=0 chnl=0 letter="_"
char id=45 x=114 y=62 width=5 height=2 xoffset=0 yoffset=8 xadvance=3 page=0 chnl=0 letter="-"
char id=32 x=3 y=71 width=0 height=0 xoffset=-117 yoffset=133 xadvance=3 page=0 chnl=0 letter="space"
kernings count=121
kerning first=104 second=84 amount=-1
kerning first=104 second=89 amount=-1
kerning first=113 second=68 amount=-1
kerning first=112 second=84 amount=-1
kerning first=112 second=89 amount=-1
kerning first=98 second=106 amount=-1
kerning first=98 second=86 amount=-1
kerning first=98 second=80 amount=-1
kerning first=98 second=84 amount=-1
kerning first=98 second=89 amount=-1
kerning first=107 second=106 amount=-1
kerning first=86 second=103 amount=-3
kerning first=86 second=106 amount=-2
kerning first=86 second=113 amount=-2
kerning first=86 second=65 amount=-4
kerning first=86 second=100 amount=-3
kerning first=86 second=74 amount=-2
kerning first=86 second=111 amount=-2
kerning first=86 second=115 amount=-2
kerning first=86 second=99 amount=-2
kerning first=86 second=101 amount=-2
kerning first=81 second=106 amount=-1
kerning first=65 second=106 amount=-2
kerning first=65 second=86 amount=-3
kerning first=65 second=80 amount=-2
kerning first=65 second=84 amount=-2
kerning first=65 second=87 amount=-3
kerning first=65 second=89 amount=-2
kerning first=65 second=118 amount=-2
kerning first=80 second=103 amount=-2
kerning first=80 second=65 amount=-2
kerning first=80 second=74 amount=-1
kerning first=82 second=106 amount=-2
kerning first=84 second=103 amount=-2
kerning first=84 second=113 amount=-2
kerning first=84 second=65 amount=-2
kerning first=84 second=100 amount=-2
kerning first=84 second=121 amount=-2
kerning first=84 second=74 amount=-2
kerning first=84 second=110 amount=-2
kerning first=84 second=119 amount=-2
kerning first=84 second=118 amount=-2
kerning first=84 second=120 amount=-2
kerning first=84 second=111 amount=-2
kerning first=84 second=122 amount=-2
kerning first=84 second=117 amount=-2
kerning first=84 second=115 amount=-2
kerning first=84 second=99 amount=-2
kerning first=84 second=97 amount=-1
kerning first=84 second=114 amount=-2
kerning first=84 second=101 amount=-2
kerning first=121 second=84 amount=-1
kerning first=69 second=106 amount=-1
kerning first=116 second=106 amount=-1
kerning first=102 second=103 amount=-1
kerning first=102 second=65 amount=-1
kerning first=87 second=106 amount=-2
kerning first=87 second=65 amount=-2
kerning first=71 second=106 amount=-1
kerning first=71 second=84 amount=-2
kerning first=71 second=89 amount=-2
kerning first=89 second=103 amount=-3
kerning first=89 second=106 amount=-2
kerning first=89 second=113 amount=-3
kerning first=89 second=65 amount=-4
kerning first=89 second=100 amount=-3
kerning first=89 second=121 amount=-2
kerning first=89 second=74 amount=-2
kerning first=89 second=119 amount=-2
kerning first=89 second=118 amount=-2
kerning first=89 second=120 amount=-2
kerning first=89 second=111 amount=-2
kerning first=89 second=122 amount=-2
kerning first=89 second=115 amount=-2
kerning first=89 second=99 amount=-3
kerning first=89 second=97 amount=-2
kerning first=89 second=101 amount=-2
kerning first=75 second=106 amount=-1
kerning first=75 second=118 amount=-1
kerning first=67 second=119 amount=-1
kerning first=67 second=118 amount=-1
kerning first=90 second=106 amount=-1
kerning first=83 second=106 amount=-2
kerning first=70 second=103 amount=-1
kerning first=70 second=106 amount=-1
kerning first=70 second=65 amount=-2
kerning first=70 second=120 amount=-2
kerning first=70 second=111 amount=-1
kerning first=76 second=106 amount=-2
kerning first=76 second=86 amount=-3
kerning first=76 second=80 amount=-2
kerning first=76 second=84 amount=-2
kerning first=76 second=87 amount=-2
kerning first=76 second=89 amount=-2
kerning first=76 second=118 amount=-1
kerning first=73 second=106 amount=-1
kerning first=110 second=106 amount=-1
kerning first=110 second=84 amount=-1
kerning first=110 second=89 amount=-1
kerning first=119 second=84 amount=-1
kerning first=119 second=90 amount=-1
kerning first=109 second=84 amount=-1
kerning first=109 second=89 amount=-1
kerning first=118 second=65 amount=-1
kerning first=118 second=84 amount=-1
kerning first=118 second=90 amount=-1
kerning first=120 second=84 amount=-1
kerning first=111 second=84 amount=-1
kerning first=111 second=89 amount=-1
kerning first=122 second=84 amount=-1
kerning first=115 second=84 amount=-1
kerning first=99 second=84 amount=-1
kerning first=97 second=84 amount=-1
kerning first=97 second=89 amount=-1
kerning first=114 second=65 amount=-1
kerning first=114 second=84 amount=-1
kerning first=114 second=90 amount=-1
kerning first=114 second=74 amount=-1
kerning first=101 second=106 amount=-1
kerning first=101 second=84 amount=-1
kerning first=101 second=89 amount=-1
